\relax 
\newlabel{chap:end}{{}{1}}
\newlabel{chap:end}{{}{1}}
\citation{Wazniak}
\@writefile{toc}{\contentsline {chapter}{\numberline {1}WST\IeC {\k E}P}{3}}
\@writefile{lof}{\addvspace {10\p@ }}
\@writefile{lot}{\addvspace {10\p@ }}
\@writefile{toc}{\contentsline {section}{\numberline {1.1}Aplikacje internetowe}{3}}
\@writefile{lof}{\contentsline {figure}{\numberline {1.1}{\ignorespaces Baza}}{4}}
\providecommand*\caption@xref[2]{\@setref\relax\@undefined{#1}}
\newlabel{mojamapa}{{1.1}{4}}
\@writefile{toc}{\contentsline {section}{\numberline {1.2}Cel i zakres pracy}{4}}
\@writefile{toc}{\contentsline {section}{\numberline {1.3}Uzasadnienie wyboru tematu}{5}}
\@writefile{toc}{\contentsline {chapter}{\numberline {2}ZA\IeC {\L }O\IeC {\.Z}ENIA PROJEKTOWE}{6}}
\@writefile{lof}{\addvspace {10\p@ }}
\@writefile{lot}{\addvspace {10\p@ }}
\@writefile{toc}{\contentsline {section}{\numberline {2.1}Cele aplikacji}{6}}
\@writefile{toc}{\contentsline {section}{\numberline {2.2}Profil u\IeC {\.z}ytkownika}{6}}
\@writefile{toc}{\contentsline {section}{\numberline {2.3}Wymagania projektu}{6}}
\@writefile{toc}{\contentsline {subsection}{\numberline {2.3.1}Wymagania funkcjonalne}{6}}
\@writefile{toc}{\contentsline {subsection}{\numberline {2.3.2}Wymagania niefunkcjonalne}{7}}
\citation{Rutter}
\@writefile{toc}{\contentsline {chapter}{\numberline {3}DOKUMENTACJA PROJEKTOWA}{8}}
\@writefile{lof}{\addvspace {10\p@ }}
\@writefile{lot}{\addvspace {10\p@ }}
\@writefile{toc}{\contentsline {section}{\numberline {3.1}Technologie wykorzystane w pracy dyplomowej}{8}}
\@writefile{toc}{\contentsline {subsection}{\numberline {3.1.1}Dzia\IeC {\l }aj\IeC {\k a}ce po stronie klienta}{8}}
\@writefile{toc}{\contentsline {subsubsection}{Javascript, JQuery, JQuery UI}{8}}
\citation{Rutter}
\@writefile{toc}{\contentsline {subsubsection}{HTML5}{9}}
\citation{MacDonald}
\@writefile{toc}{\contentsline {subsubsection}{Google Maps API, jQuery UI Map}{10}}
\citation{Gmaps}
\citation{Ullman}
\@writefile{toc}{\contentsline {subsubsection}{Ajax}{11}}
\@writefile{lof}{\contentsline {figure}{\numberline {3.1}{\ignorespaces Ajax}}{12}}
\citation{McFarland}
\citation{Kobusinski}
\citation{Bootstrap}
\@writefile{toc}{\contentsline {subsubsection}{CSS3}{13}}
\citation{Firdaus}
\citation{Strychalski}
\@writefile{toc}{\contentsline {subsubsection}{Bootstrap}{14}}
\@writefile{toc}{\contentsline {subsection}{\numberline {3.1.2}Dzia\IeC {\l }aj\IeC {\k a}ce po stronie serwera}{14}}
\@writefile{toc}{\contentsline {subsubsection}{PHP}{14}}
\citation{Dubois}
\@writefile{toc}{\contentsline {subsubsection}{MySQL}{15}}
\@writefile{lof}{\contentsline {figure}{\numberline {3.2}{\ignorespaces Wynik zapytania MySQL\relax }}{15}}
\@writefile{toc}{\contentsline {section}{\numberline {3.2}Narz\IeC {\k e}dzia programistyczne}{16}}
\@writefile{toc}{\contentsline {chapter}{\numberline {4}IMPLEMENTACJA}{17}}
\@writefile{lof}{\addvspace {10\p@ }}
\@writefile{lot}{\addvspace {10\p@ }}
\@writefile{toc}{\contentsline {section}{\numberline {4.1}Architektura systemu}{17}}
\@writefile{lof}{\contentsline {figure}{\numberline {4.1}{\ignorespaces Architektura aplikacji\relax }}{17}}
\@writefile{toc}{\contentsline {section}{\numberline {4.2}Diagram przypadk\IeC {\'o}w u\IeC {\.z}ycia}{18}}
\@writefile{lof}{\contentsline {figure}{\numberline {4.2}{\ignorespaces Przyp. u\IeC {\.z}ycia}}{18}}
\newlabel{use-case}{{4.2}{18}}
\@writefile{toc}{\contentsline {section}{\numberline {4.3}Schemat bazy danych}{18}}
\@writefile{lof}{\contentsline {figure}{\numberline {4.3}{\ignorespaces Baza}}{19}}
\newlabel{baza}{{4.3}{19}}
\@writefile{toc}{\contentsline {section}{\numberline {4.4}Fragmenty kodu}{19}}
\@writefile{toc}{\contentsline {chapter}{\numberline {5}TESTY}{23}}
\@writefile{lof}{\addvspace {10\p@ }}
\@writefile{lot}{\addvspace {10\p@ }}
\@writefile{lof}{\contentsline {figure}{\numberline {5.1}{\ignorespaces Firebug}}{24}}
\@writefile{lof}{\contentsline {figure}{\numberline {5.2}{\ignorespaces Firebug}}{24}}
\@writefile{lof}{\contentsline {figure}{\numberline {5.3}{\ignorespaces Firebug: pobranie danych wybranego miejsca.\relax }}{25}}
\@writefile{lof}{\contentsline {figure}{\numberline {5.4}{\ignorespaces Firebug: wynik funkcji JQuery, pobieraj\IeC {\k a}cej nazwy zdj\IeC {\k e}\IeC {\'c} przypisanych do miejsca.\relax }}{25}}
\@writefile{lof}{\contentsline {figure}{\numberline {5.5}{\ignorespaces Firebug: dane wysy\IeC {\l }ane przy dodawaniu nowego miejsca.\relax }}{26}}
\@writefile{lof}{\contentsline {figure}{\numberline {5.6}{\ignorespaces Firebug: odpowied\IeC {\'z} serwera zawieraj\IeC {\k a}ca identyfikator utworzonego punktu.\relax }}{26}}
\@writefile{lof}{\contentsline {figure}{\numberline {5.7}{\ignorespaces Sprawdzenie poprawno\IeC {\'s}ci kodu z u\IeC {\.z}yciem walidatora \textit  {W3C}.\relax }}{27}}
\@writefile{toc}{\contentsline {chapter}{\numberline {6}DOKUMENTACJA U\IeC {\.Z}YTKOWA}{28}}
\@writefile{lof}{\addvspace {10\p@ }}
\@writefile{lot}{\addvspace {10\p@ }}
\@writefile{toc}{\contentsline {section}{\numberline {6.1}Wymagania sprz\IeC {\k e}towe}{28}}
\@writefile{toc}{\contentsline {section}{\numberline {6.2}Instrukcja korzystania z serwisu}{28}}
\@writefile{lof}{\contentsline {figure}{\numberline {6.1}{\ignorespaces Przegl\IeC {\k a}danie miejsc dodanych do mapy.\relax }}{28}}
\@writefile{lof}{\contentsline {figure}{\numberline {6.2}{\ignorespaces Formularze rejestracji i logowania\relax }}{29}}
\@writefile{lof}{\contentsline {figure}{\numberline {6.3}{\ignorespaces Dodawanie nowego miejsca.\relax }}{30}}
\@writefile{lof}{\contentsline {figure}{\numberline {6.4}{\ignorespaces Wystawianie komentarzy\relax }}{30}}
\@writefile{lof}{\contentsline {figure}{\numberline {6.5}{\ignorespaces Dodawanie miejsca od schowka\relax }}{31}}
\@writefile{lof}{\contentsline {figure}{\numberline {6.6}{\ignorespaces Usuwanie miejsca\relax }}{31}}
\@writefile{lof}{\contentsline {figure}{\numberline {6.7}{\ignorespaces Wy\IeC {\'s}wietlanie listy u\IeC {\.z}ytkownik\IeC {\'o}w\relax }}{31}}
\@writefile{toc}{\contentsline {chapter}{\numberline {7}PODSUMOWANIE}{32}}
\@writefile{lof}{\addvspace {10\p@ }}
\@writefile{lot}{\addvspace {10\p@ }}
\bibcite{Wazniak}{1}
\bibcite{Rutter}{2}
\bibcite{MacDonald}{3}
\bibcite{Gmaps}{4}
\bibcite{Ullman}{5}
\bibcite{McFarland}{6}
\bibcite{Kobusinski}{7}
\bibcite{Bootstrap}{8}
\bibcite{Firdaus}{9}
\bibcite{Strychalski}{10}
\bibcite{Dubois}{11}
\@writefile{toc}{\contentsline {chapter}{\numberline {8}LITERATURA}{33}}
