\relax 
\@writefile{toc}{\contentsline {section}{Wymagania sprz\IeC {\k e}towe}{1}}
\@writefile{toc}{\contentsline {section}{Instrukcja korzystania z serwisu}{1}}
\@writefile{lof}{\contentsline {figure}{\numberline {1}{\ignorespaces Przegl\IeC {\k a}danie miejsc dodanych do mapy.\relax }}{1}}
\@writefile{lof}{\contentsline {figure}{\numberline {2}{\ignorespaces Formularze rejestracji i logowania\relax }}{2}}
\@writefile{lof}{\contentsline {figure}{\numberline {3}{\ignorespaces Dodawanie nowego miejsca.\relax }}{3}}
\@writefile{lof}{\contentsline {figure}{\numberline {4}{\ignorespaces Wystawianie komentarzy\relax }}{3}}
\@writefile{lof}{\contentsline {figure}{\numberline {5}{\ignorespaces Dodawanie miejsca od schowka\relax }}{4}}
\@writefile{lof}{\contentsline {figure}{\numberline {6}{\ignorespaces Usuwanie miejsca\relax }}{4}}
\@writefile{lof}{\contentsline {figure}{\numberline {7}{\ignorespaces Formularze rejestracji i logowania\relax }}{4}}
